\relax 
\providecommand\hyper@newdestlabel[2]{}
\catcode `"\active 
\catcode `-\active 
\providecommand\HyperFirstAtBeginDocument{\AtBeginDocument}
\HyperFirstAtBeginDocument{\ifx\hyper@anchor\@undefined
\global\let\oldcontentsline\contentsline
\gdef\contentsline#1#2#3#4{\oldcontentsline{#1}{#2}{#3}}
\global\let\oldnewlabel\newlabel
\gdef\newlabel#1#2{\newlabelxx{#1}#2}
\gdef\newlabelxx#1#2#3#4#5#6{\oldnewlabel{#1}{{#2}{#3}}}
\AtEndDocument{\ifx\hyper@anchor\@undefined
\let\contentsline\oldcontentsline
\let\newlabel\oldnewlabel
\fi}
\fi}
\global\let\hyper@last\relax 
\gdef\HyperFirstAtBeginDocument#1{#1}
\providecommand\HyField@AuxAddToFields[1]{}
\providecommand\HyField@AuxAddToCoFields[2]{}
\select@language{british}
\@writefile{toc}{\select@language{british}}
\@writefile{lof}{\select@language{british}}
\@writefile{lot}{\select@language{british}}
\select@language{czech}
\@writefile{toc}{\select@language{czech}}
\@writefile{lof}{\select@language{czech}}
\@writefile{lot}{\select@language{czech}}
\select@language{british}
\@writefile{toc}{\select@language{british}}
\@writefile{lof}{\select@language{british}}
\@writefile{lot}{\select@language{british}}
\select@language{czech}
\@writefile{toc}{\select@language{czech}}
\@writefile{lof}{\select@language{czech}}
\@writefile{lot}{\select@language{czech}}
\select@language{czech}
\@writefile{toc}{\select@language{czech}}
\@writefile{lof}{\select@language{czech}}
\@writefile{lot}{\select@language{czech}}
\select@language{czech}
\@writefile{toc}{\select@language{czech}}
\@writefile{lof}{\select@language{czech}}
\@writefile{lot}{\select@language{czech}}
\@writefile{toc}{\contentsline {chapter}{\numberline {1}\IeC {\'U}vod}{9}{chapter.1}}
\@writefile{lof}{\addvspace {10\p@ }}
\@writefile{lot}{\addvspace {10\p@ }}
\citation{Manning}
\citation{Manning}
\citation{Schwarz}
\@writefile{toc}{\contentsline {chapter}{\numberline {2}Indexace}{10}{chapter.2}}
\@writefile{lof}{\addvspace {10\p@ }}
\@writefile{lot}{\addvspace {10\p@ }}
\@writefile{toc}{\contentsline {section}{\numberline {2.1}Postup indexace}{10}{section.2.1}}
\@writefile{toc}{\contentsline {subsection}{\numberline {2.1.1}Tokenizace}{10}{subsection.2.1.1}}
\citation{Manning}
\citation{Baeza}
\citation{mastersthesis}
\citation{BioLemmatizer}
\@writefile{toc}{\contentsline {subsection}{\numberline {2.1.2}Odstran\IeC {\v e}n\IeC {\'\i } nev\IeC {\'y}znamov\IeC {\'y}ch slov}{11}{subsection.2.1.2}}
\@writefile{toc}{\contentsline {subsection}{\numberline {2.1.3}Normalizace}{11}{subsection.2.1.3}}
\@writefile{lot}{\contentsline {table}{\numberline {2.1}{\ignorespaces Porovn\IeC {\'a}n\IeC {\'\i } stematizace a lematizace}}{12}{table.2.1}}
\newlabel{tabulkaStematizace}{{2.1}{12}{Porovnání stematizace a lematizace}{table.2.1}{}}
\@writefile{toc}{\contentsline {subsection}{\numberline {2.1.4}Invertovan\IeC {\'y} seznam}{12}{subsection.2.1.4}}
\citation{mastersthesis}
\citation{Mining}
\citation{Baeza}
\@writefile{toc}{\contentsline {chapter}{\numberline {3}Reprezentace textov\IeC {\'y}ch dokument\IeC {\r u}}{13}{chapter.3}}
\@writefile{lof}{\addvspace {10\p@ }}
\@writefile{lot}{\addvspace {10\p@ }}
\@writefile{toc}{\contentsline {section}{\numberline {3.1}Bag of words}{13}{section.3.1}}
\@writefile{toc}{\contentsline {section}{\numberline {3.2}Booleovsk\IeC {\'y} model}{13}{section.3.2}}
\citation{Kratky}
\citation{Salton}
\@writefile{lot}{\contentsline {table}{\numberline {3.1}{\ignorespaces Uk\IeC {\'a}zkov\IeC {\'a} matice v\IeC {\'y}skyt\IeC {\r u}}}{14}{table.3.1}}
\newlabel{boolVyrazy}{{3.1}{14}{Ukázková matice výskytů}{table.3.1}{}}
\@writefile{toc}{\contentsline {section}{\numberline {3.3}Vektorov\IeC {\'y} model}{14}{section.3.3}}
\citation{Manning}
\citation{Hastings}
\citation{Kratky}
\@writefile{toc}{\contentsline {section}{\numberline {3.4}Latent Semantic Analysis}{15}{section.3.4}}
\citation{Kratky}
\citation{LDA}
\citation{SLDA}
\@writefile{lof}{\contentsline {figure}{\numberline {3.1}{\ignorespaces Singul\IeC {\'a}rn\IeC {\'\i } rozklad matice A}}{16}{figure.3.1}}
\newlabel{SVD}{{3.1}{16}{Singulární rozklad matice A}{figure.3.1}{}}
\newlabel{dk}{{3.1}{16}{Latent Semantic Analysis}{equation.3.4.1}{}}
\newlabel{tk}{{3.2}{16}{Latent Semantic Analysis}{equation.3.4.2}{}}
\@writefile{toc}{\contentsline {section}{\numberline {3.5}Latent Dirichlet Allocation}{16}{section.3.5}}
\citation{Mining}
\@writefile{toc}{\contentsline {chapter}{\numberline {4}V\IeC {\'a}hov\IeC {\'a}n\IeC {\'\i } term\IeC {\r u}}{17}{chapter.4}}
\@writefile{lof}{\addvspace {10\p@ }}
\@writefile{lot}{\addvspace {10\p@ }}
\@writefile{toc}{\contentsline {section}{\numberline {4.1}Bin\IeC {\'a}rn\IeC {\'\i } v\IeC {\'a}ha}{17}{section.4.1}}
\@writefile{toc}{\contentsline {section}{\numberline {4.2}Frekvence termu}{17}{section.4.2}}
\citation{SearchEngines}
\citation{Mining}
\citation{Manning}
\citation{Manning}
\newlabel{TF}{{4.1}{18}{Frekvence termu}{equation.4.2.1}{}}
\newlabel{TF-max}{{4.2}{18}{Frekvence termu}{equation.4.2.2}{}}
\@writefile{toc}{\contentsline {section}{\numberline {4.3}Inverzn\IeC {\'\i } frekvence dokumentu}{18}{section.4.3}}
\newlabel{idf}{{4.3}{18}{Inverzní frekvence dokumentu}{equation.4.3.3}{}}
\@writefile{toc}{\contentsline {section}{\numberline {4.4}tf-idf}{18}{section.4.4}}
\newlabel{tf-idf}{{4.4}{18}{tf-idf}{equation.4.4.4}{}}
\@writefile{lot}{\contentsline {table}{\numberline {4.1}{\ignorespaces Uk\IeC {\'a}zka frekvence termu}}{19}{table.4.1}}
\newlabel{tfTabulka}{{4.1}{19}{Ukázka frekvence termu}{table.4.1}{}}
\@writefile{lot}{\contentsline {table}{\numberline {4.2}{\ignorespaces Uk\IeC {\'a}zka inverzn\IeC {\'\i } frekvence dokumentu}}{19}{table.4.2}}
\newlabel{idfTabulka}{{4.2}{19}{Ukázka inverzní frekvence dokumentu}{table.4.2}{}}
\@writefile{lot}{\contentsline {table}{\numberline {4.3}{\ignorespaces Uk\IeC {\'a}zka tf-idf m\IeC {\'\i }ry}}{19}{table.4.3}}
\newlabel{tf-idfTabulka}{{4.3}{19}{Ukázka tf-idf míry}{table.4.3}{}}
\@writefile{toc}{\contentsline {chapter}{\numberline {5}Porovn\IeC {\'a}v\IeC {\'a}n\IeC {\'\i } dokument\IeC {\r u}}{20}{chapter.5}}
\@writefile{lof}{\addvspace {10\p@ }}
\@writefile{lot}{\addvspace {10\p@ }}
\@writefile{toc}{\contentsline {section}{\numberline {5.1}Euklidovsk\IeC {\'a} vzd\IeC {\'a}lenost}{20}{section.5.1}}
\newlabel{euclid}{{5.1}{20}{Euklidovská vzdálenost}{equation.5.1.1}{}}
\@writefile{toc}{\contentsline {section}{\numberline {5.2}Kosinov\IeC {\'a} podobnost}{20}{section.5.2}}
\citation{jaccard}
\@writefile{lof}{\contentsline {figure}{\numberline {5.1}{\ignorespaces Euklidovsk\IeC {\'a} vzd\IeC {\'a}lenost}}{21}{figure.5.1}}
\newlabel{VektorModel}{{5.1}{21}{Euklidovská vzdálenost}{figure.5.1}{}}
\newlabel{cos}{{5.2}{21}{Kosinová podobnost}{equation.5.2.2}{}}
\@writefile{toc}{\contentsline {section}{\numberline {5.3}Jaccard\IeC {\r u}v index}{21}{section.5.3}}
\citation{klDivergence}
\newlabel{kosinovaPodobnost}{{5.2}{22}{Kosinová podobnost}{equation.5.2.2}{}}
\@writefile{lot}{\contentsline {table}{\numberline {5.1}{\ignorespaces Kosinov\IeC {\'a} podobnost mezi dokumenty}}{22}{table.5.1}}
\newlabel{jaccard}{{5.3}{22}{Jaccardův index}{equation.5.3.3}{}}
\@writefile{toc}{\contentsline {section}{\numberline {5.4}Kullback-Leibler divergence}{22}{section.5.4}}
\newlabel{kl}{{5.4}{22}{Kullback-Leibler divergence}{equation.5.4.4}{}}
\citation{Manning}
\citation{wiki:PR}
\citation{Manning}
\citation{wiki:PR}
\@writefile{toc}{\contentsline {chapter}{\numberline {6}Vyhodnocen\IeC {\'\i } v\IeC {\'y}sledk\IeC {\r u}}{23}{chapter.6}}
\@writefile{lof}{\addvspace {10\p@ }}
\@writefile{lot}{\addvspace {10\p@ }}
\@writefile{toc}{\contentsline {section}{\numberline {6.1}Precision}{23}{section.6.1}}
\newlabel{prec}{{6.1}{23}{Precision}{equation.6.1.1}{}}
\@writefile{toc}{\contentsline {section}{\numberline {6.2}\IeC {\'U}plnost}{23}{section.6.2}}
\newlabel{prec}{{6.2}{23}{Úplnost}{equation.6.2.2}{}}
\@writefile{toc}{\contentsline {section}{\numberline {6.3}Accuracy}{23}{section.6.3}}
\citation{Manning}
\citation{Manning}
\newlabel{accuracy}{{6.3}{24}{Accuracy}{section.6.3}{}}
\@writefile{lot}{\contentsline {table}{\numberline {6.1}{\ignorespaces Vyhodnocov\IeC {\'a}n\IeC {\'\i } v\IeC {\'y}sledk\IeC {\r u}}}{24}{table.6.1}}
\newlabel{prec}{{6.3}{24}{Accuracy}{equation.6.3.3}{}}
\newlabel{acc}{{6.5}{24}{Accuracy}{equation.6.3.5}{}}
\@writefile{toc}{\contentsline {section}{\numberline {6.4}F-m\IeC {\'\i }ra}{24}{section.6.4}}
\newlabel{f}{{6.6}{24}{F-míra}{equation.6.4.6}{}}
\citation{Mining}
\citation{jaccard}
\@writefile{toc}{\contentsline {chapter}{\numberline {7}Detekce t\IeC {\'e}m\IeC {\v e}\IeC {\v r} duplicitn\IeC {\'\i }ch dokument\IeC {\r u}}{25}{chapter.7}}
\@writefile{lof}{\addvspace {10\p@ }}
\@writefile{lot}{\addvspace {10\p@ }}
\@writefile{toc}{\contentsline {section}{\numberline {7.1}Shingling}{25}{section.7.1}}
\citation{Mining}
\citation{lecocq}
\citation{entity}
\@writefile{toc}{\contentsline {chapter}{\numberline {8}Rozpozn\IeC {\'a}v\IeC {\'a}n\IeC {\'\i } pojmenovan\IeC {\'y}ch entit}{27}{chapter.8}}
\@writefile{lof}{\addvspace {10\p@ }}
\@writefile{lot}{\addvspace {10\p@ }}
\@writefile{toc}{\contentsline {section}{\numberline {8.1}N\IeC {\'a}stroje pro anglick\IeC {\'y} jazyk}{27}{section.8.1}}
\citation{strakova14}
\@writefile{toc}{\contentsline {section}{\numberline {8.2}N\IeC {\'a}stroj pro \IeC {\v c}esk\IeC {\'y} jazyk}{28}{section.8.2}}
\@writefile{lof}{\contentsline {figure}{\numberline {8.1}{\ignorespaces 62 t\IeC {\v r}\IeC {\'\i }d dvoustup\IeC {\v n}ov\IeC {\'e} hirearchie modelu 1.1}}{29}{figure.8.1}}
\newlabel{nameTag11}{{8.1}{29}{62 tříd dvoustupňové hirearchie modelu 1.1}{figure.8.1}{}}
\@writefile{lof}{\contentsline {figure}{\numberline {8.2}{\ignorespaces 46 t\IeC {\v r}\IeC {\'\i }d dvoustup\IeC {\v n}ov\IeC {\'e} hirearchie modelu 2.0}}{30}{figure.8.2}}
\newlabel{nameTag20}{{8.2}{30}{46 tříd dvoustupňové hirearchie modelu 2.0}{figure.8.2}{}}
\citation{lucene}
\citation{analyzery}
\@writefile{toc}{\contentsline {chapter}{\numberline {9}Apache Lucene}{31}{chapter.9}}
\@writefile{lof}{\addvspace {10\p@ }}
\@writefile{lot}{\addvspace {10\p@ }}
\@writefile{toc}{\contentsline {section}{\numberline {9.1}Podobnost v Lucene}{31}{section.9.1}}
\citation{scoring}
\citation{mlt}
\@writefile{toc}{\contentsline {section}{\numberline {9.2}Lucene scoring formula}{32}{section.9.2}}
\newlabel{luceneScoring}{{9.1}{32}{Lucene scoring formula}{equation.9.2.1}{}}
\citation{tika}
\@writefile{toc}{\contentsline {section}{\numberline {9.3}More like this}{33}{section.9.3}}
\@writefile{toc}{\contentsline {section}{\numberline {9.4}Apache Tika}{33}{section.9.4}}
\citation{revizeSlovnik}
\citation{revizeSlovnik}
\citation{revizeLINGEA}
\citation{revizeABZ}
\citation{revizeMac}
\citation{revizeCambridge}
\@writefile{toc}{\contentsline {chapter}{\numberline {10}Revize}{34}{chapter.10}}
\@writefile{lof}{\addvspace {10\p@ }}
\@writefile{lot}{\addvspace {10\p@ }}
\newlabel{revize}{{10}{34}{Revize}{chapter.10}{}}
\@writefile{toc}{\contentsline {section}{\numberline {10.1}Definice}{34}{section.10.1}}
\@writefile{toc}{\contentsline {section}{\numberline {10.2}P\IeC {\v r}\IeC {\'\i }klady reviz\IeC {\'\i }}{35}{section.10.2}}
\@writefile{toc}{\contentsline {chapter}{\numberline {11}Testovac\IeC {\'\i } mno\IeC {\v z}ina dokument\IeC {\r u}}{37}{chapter.11}}
\@writefile{lof}{\addvspace {10\p@ }}
\@writefile{lot}{\addvspace {10\p@ }}
\@writefile{toc}{\contentsline {chapter}{\numberline {12}Implementace st\IeC {\'a}vaj\IeC {\'\i }c\IeC {\'\i }ch algoritm\IeC {\r u}}{38}{chapter.12}}
\@writefile{lof}{\addvspace {10\p@ }}
\@writefile{lot}{\addvspace {10\p@ }}
\@writefile{toc}{\contentsline {section}{\numberline {12.1}Anal\IeC {\'y}za v\IeC {\'y}b\IeC {\v e}ru algoritm\IeC {\r u}}{38}{section.12.1}}
\@writefile{toc}{\contentsline {section}{\numberline {12.2}Pou\IeC {\v z}it\IeC {\'e} technologie}{38}{section.12.2}}
\@writefile{toc}{\contentsline {section}{\numberline {12.3}Vytvo\IeC {\v r}en\IeC {\'\i } indexu}{38}{section.12.3}}
\newlabel{fieldType}{{12.1}{39}{Specifikace vlastností pole pro udržování textu}{lstlisting.12.1}{}}
\@writefile{lol}{\contentsline {lstlisting}{\numberline {12.1}Specifikace vlastnost\IeC {\'\i } pole pro udr\IeC {\v z}ov\IeC {\'a}n\IeC {\'\i } textu}{39}{lstlisting.12.1}}
\@writefile{toc}{\contentsline {section}{\numberline {12.4}TF-IDF a kosinov\IeC {\'a} vzd\IeC {\'a}lenost}{40}{section.12.4}}
\newlabel{getVahy}{{12.2}{40}{Získání ováhovaného vektoru z dokumentu}{lstlisting.12.2}{}}
\@writefile{lol}{\contentsline {lstlisting}{\numberline {12.2}Z\IeC {\'\i }sk\IeC {\'a}n\IeC {\'\i } ov\IeC {\'a}hovan\IeC {\'e}ho vektoru z dokumentu}{40}{lstlisting.12.2}}
\@writefile{toc}{\contentsline {section}{\numberline {12.5}K-shingling}{41}{section.12.5}}
\newlabel{shingleAnalyzer}{{12.3}{41}{Vytvoření vlastního analyzéru na generování shinglů}{lstlisting.12.3}{}}
\@writefile{lol}{\contentsline {lstlisting}{\numberline {12.3}Vytvo\IeC {\v r}en\IeC {\'\i } vlastn\IeC {\'\i }ho analyz\IeC {\'e}ru na generov\IeC {\'a}n\IeC {\'\i } shingl\IeC {\r u}}{41}{lstlisting.12.3}}
\@writefile{toc}{\contentsline {section}{\numberline {12.6}More like this}{42}{section.12.6}}
\@writefile{toc}{\contentsline {section}{\numberline {12.7}Pr\IeC {\r u}b\IeC {\v e}h experiment\IeC {\r u}}{42}{section.12.7}}
\@writefile{toc}{\contentsline {section}{\numberline {12.8}V\IeC {\'y}sledek experiment\IeC {\r u}}{42}{section.12.8}}
\@writefile{lot}{\contentsline {table}{\numberline {12.1}{\ignorespaces V\IeC {\'y}sledky experiment\IeC {\r u} s kosinovou vzd\IeC {\'a}lenost\IeC {\'\i } a Jaccardov\IeC {\'y}m indexem}}{43}{table.12.1}}
\newlabel{vysledky}{{12.1}{43}{Výsledky experimentů s kosinovou vzdáleností a Jaccardovým indexem}{table.12.1}{}}
\@writefile{lot}{\contentsline {table}{\numberline {12.2}{\ignorespaces V\IeC {\'y}sledky experiment\IeC {\r u} s algoritmem More like this}}{43}{table.12.2}}
\newlabel{mltVysledky}{{12.2}{43}{Výsledky experimentů s algoritmem More like this}{table.12.2}{}}
\@writefile{toc}{\contentsline {chapter}{\numberline {13}Implementace vlastn\IeC {\'\i }ho algoritmu}{44}{chapter.13}}
\@writefile{lof}{\addvspace {10\p@ }}
\@writefile{lot}{\addvspace {10\p@ }}
\@writefile{toc}{\contentsline {section}{\numberline {13.1}Anal\IeC {\'y}za a n\IeC {\'a}vrh \IeC {\v r}e\IeC {\v s}en\IeC {\'\i }}{44}{section.13.1}}
\@writefile{toc}{\contentsline {section}{\numberline {13.2}Popis \IeC {\v r}e\IeC {\v s}en\IeC {\'\i }}{44}{section.13.2}}
\newlabel{kldivergence}{{13.1}{45}{Zjištění KL divergence mezi dvěma ohodnocenými dokumenty}{lstlisting.13.1}{}}
\@writefile{lol}{\contentsline {lstlisting}{\numberline {13.1}Zji\IeC {\v s}t\IeC {\v e}n\IeC {\'\i } KL divergence mezi dv\IeC {\v e}ma ohodnocen\IeC {\'y}mi dokumenty}{45}{lstlisting.13.1}}
\@writefile{toc}{\contentsline {section}{\numberline {13.3}V\IeC {\'y}sledky testov\IeC {\'a}n\IeC {\'\i }}{46}{section.13.3}}
\bibstyle{csplainnatkiv}
\bibdata{teorie}
\@writefile{toc}{\contentsline {chapter}{\numberline {14}Z\IeC {\'a}v\IeC {\v e}r}{48}{chapter.14}}
\@writefile{lof}{\addvspace {10\p@ }}
\@writefile{lot}{\addvspace {10\p@ }}
\bibcite{analyzery}{{1}{2016}{{ana}}{{}}}
\bibcite{lucene}{{2}{2016}{{luc}}{{}}}
\bibcite{mlt}{{3}{}{{mlt}}{{}}}
\bibcite{revizeABZ}{{4}{}{{rev}}{{}}}
\bibcite{revizeCambridge}{{5}{}{{rev}}{{}}}
\bibcite{revizeLINGEA}{{6}{}{{rev}}{{}}}
\bibcite{revizeMac}{{7}{}{{rev}}{{}}}
\bibcite{revizeSlovnik}{{8}{}{{rev}}{{}}}
\bibcite{scoring}{{9}{}{{sco}}{{}}}
\bibcite{tika}{{10}{}{{tik}}{{}}}
\bibcite{Baeza}{{11}{1999}{{Baeza-Yates -- Ribeiro-Neto}}{{Baeza-Yates, Ribeiro-Neto}}}
\bibcite{LDA}{{12}{2003}{{Blei et~al.}}{{Blei, Ng,, Jordan}}}
\@writefile{toc}{\contentsline {chapter}{Literatura}{49}{chapter*.6}}
\bibcite{SearchEngines}{{13}{2009}{{Croft et~al.}}{{Croft, Metzler,, Strohman}}}
\bibcite{mastersthesis}{{14}{2014}{{Kot\IeC {\'\i }kov\IeC {\'a}}}{{}}}
\bibcite{Kratky}{{15}{2002}{{Kr\IeC {\'a}tk\IeC {\'y}}}{{}}}
\bibcite{lecocq}{{16}{2015}{{Lecocq}}{{}}}
\bibcite{Mining}{{17}{2011}{{Leskovec et~al.}}{{Leskovec, Rajaraman,, Ullman}}}
\bibcite{BioLemmatizer}{{18}{2012}{{Liu et~al.}}{{Liu, Christiansen, William A~Baumgartner,, Verspoor}}}
\bibcite{Manning}{{19}{2008}{{Manning et~al.}}{{Manning, Raghavan,, Sch\IeC {\"u}tze}}}
\bibcite{jaccard}{{20}{2013}{{Phillips}}{{}}}
\bibcite{Salton}{{21}{1971}{{Salton}}{{}}}
\bibcite{Schwarz}{{22}{2003}{{Schwarz}}{{}}}
\bibcite{strakova14}{{23}{2014}{{Strakov\'{a} et~al.}}{{Strakov\'{a}, Straka,, Haji\v {c}}}}
\bibcite{entity}{{24}{}{{Strakov\IeC {\'a}}}{{}}}
\bibcite{SLDA}{{25}{2007}{{Wang -- Grimson}}{{Wang, Grimson}}}
\bibcite{Hastings}{{26}{2004}{{Wiemer-Hastings}}{{}}}
\bibcite{klDivergence}{{27}{2017}{{Wikipedia}}{{}}}
\bibcite{wiki:PR}{{28}{2016}{{Wikipedia}}{{}}}
\@writefile{toc}{\contentsline {chapter}{Seznam p\IeC {\v r}\IeC {\'\i }loh}{52}{appendix*.7}}
\@writefile{toc}{\contentsline {chapter}{\numberline {A}V\IeC {\'y}sledky testov\IeC {\'a}n\IeC {\'\i } nov\IeC {\'e}ho algoritmu}{53}{appendix.A}}
\@writefile{lof}{\addvspace {10\p@ }}
\@writefile{lot}{\addvspace {10\p@ }}
\@writefile{toc}{\contentsline {section}{\numberline {A.1}Jednotliv\IeC {\'e} termy ohodnocen\IeC {\'e} frekvenc\IeC {\'\i } termu}{53}{section.A.1}}
\@writefile{lot}{\contentsline {table}{\numberline {A.1}{\ignorespaces V\IeC {\'y}sledky experiment\IeC {\r u} s jednotliv\IeC {\'y}mi termy ohodnocen\IeC {\'y}mi frekvenc\IeC {\'\i } termu}}{53}{table.A.1}}
\newlabel{tf}{{A.1}{53}{Výsledky experimentů s jednotlivými termy ohodnocenými frekvencí termu}{table.A.1}{}}
\@writefile{toc}{\contentsline {section}{\numberline {A.2}Jednotliv\IeC {\'e} termy ohodnocen\IeC {\'e} TF-IDF}{53}{section.A.2}}
\@writefile{lot}{\contentsline {table}{\numberline {A.2}{\ignorespaces V\IeC {\'y}sledky experiment\IeC {\r u} s jednotliv\IeC {\'y}mi termy ohodnocen\IeC {\'y}mi TF-IDF}}{53}{table.A.2}}
\newlabel{my-label}{{A.2}{53}{Výsledky experimentů s jednotlivými termy ohodnocenými TF-IDF}{table.A.2}{}}
\@writefile{toc}{\contentsline {section}{\numberline {A.3}Shingly velikosti 2 ohodnocen\IeC {\'e} frekvenc\IeC {\'\i } termu}{54}{section.A.3}}
\@writefile{lot}{\contentsline {table}{\numberline {A.3}{\ignorespaces V\IeC {\'y}sledky experiment\IeC {\r u} se shingly velikosti 2 ohodnocen\IeC {\'e} frekvenc\IeC {\'\i } termu}}{54}{table.A.3}}
\newlabel{my-label}{{A.3}{54}{Výsledky experimentů se shingly velikosti 2 ohodnocené frekvencí termu}{table.A.3}{}}
\@writefile{toc}{\contentsline {section}{\numberline {A.4}Shingly velikosti 3 ohodnocen\IeC {\'e} frekevenc\IeC {\'\i } termu}{54}{section.A.4}}
\@writefile{lot}{\contentsline {table}{\numberline {A.4}{\ignorespaces V\IeC {\'y}sledky experiment\IeC {\r u} se shingly velikosti 3 ohodnocen\IeC {\'e} frekvenc\IeC {\'\i } termu}}{54}{table.A.4}}
\newlabel{my-label}{{A.4}{54}{Výsledky experimentů se shingly velikosti 3 ohodnocené frekvencí termu}{table.A.4}{}}
\@writefile{toc}{\contentsline {section}{\numberline {A.5}Shingly velikosti 4 ohodnocen\IeC {\'e} frekvenc\IeC {\'\i } termu}{55}{section.A.5}}
\@writefile{lot}{\contentsline {table}{\numberline {A.5}{\ignorespaces V\IeC {\'y}sledky experiment\IeC {\r u} se shingly velikosti 4 ohodnocen\IeC {\'e} frekvenc\IeC {\'\i } termu}}{55}{table.A.5}}
\newlabel{my-label}{{A.5}{55}{Výsledky experimentů se shingly velikosti 4 ohodnocené frekvencí termu}{table.A.5}{}}
\@writefile{toc}{\contentsline {section}{\numberline {A.6}Shingly velikosti 5 ohodnocen\IeC {\'e} frekvenc\IeC {\'\i } termu}{55}{section.A.6}}
\@writefile{lot}{\contentsline {table}{\numberline {A.6}{\ignorespaces V\IeC {\'y}sledky experiment\IeC {\r u} se shingly velikosti 5 ohodnocen\IeC {\'e} frekvenc\IeC {\'\i } termu}}{55}{table.A.6}}
\newlabel{my-label}{{A.6}{55}{Výsledky experimentů se shingly velikosti 5 ohodnocené frekvencí termu}{table.A.6}{}}
\@writefile{toc}{\contentsline {chapter}{\numberline {B}U\IeC {\v z}ivatelsk\IeC {\'a} p\IeC {\v r}\IeC {\'\i }ru\IeC {\v c}ka}{56}{appendix.B}}
\@writefile{lof}{\addvspace {10\p@ }}
\@writefile{lot}{\addvspace {10\p@ }}
\@writefile{toc}{\contentsline {section}{\numberline {B.1}Spu\IeC {\v s}t\IeC {\v e}n\IeC {\'\i } programu}{56}{section.B.1}}
\@writefile{toc}{\contentsline {section}{\numberline {B.2}Indexace dokument\IeC {\r u}}{56}{section.B.2}}
\@writefile{toc}{\contentsline {section}{\numberline {B.3}Experiment s jednotliv\IeC {\'y}mi termy s TF-IDF a kosinovou vzd\IeC {\'a}lenost\IeC {\'\i }}{57}{section.B.3}}
\@writefile{toc}{\contentsline {section}{\numberline {B.4}Experiment s k-shinglingem}{57}{section.B.4}}
\@writefile{toc}{\contentsline {section}{\numberline {B.5}Experiment s More Like this}{58}{section.B.5}}
\@writefile{toc}{\contentsline {section}{\numberline {B.6}Experiment s nov\IeC {\'y}m algoritmem}{58}{section.B.6}}
